sim/tut3_pymtl/regincr-sim.vcd
$date
    Wed Sep  9 16:57:25 2020
$end
$version
    PyMTL ?.??
$end
$timescale
    10ps
$end

$scope module top $end
$var reg 8 ! in_ $end
$var reg 1 " reset $end
$var reg 1 # clk $end
$var reg 8 $ out $end
$var reg 8 % reg_out $end
$upscope $end
$enddefinitions $end

b0b00000000 !
b0b0 "
b0b0 #
b0b00000000 $
b0b00000000 %
b0b1 "

b0b00000001 $

#50
b0b1 #

#100
b0b0 #

#150
b0b1 #

b0b0 "

b0b00000001 !

#200
b0b0 #

#250
b0b1 #

b0b00000001 %

b0b00000010 $

b0b00000000 !

#300
b0b0 #

#350
b0b1 #

b0b00000000 %

b0b00000001 $

#400
b0b0 #

#450
b0b1 #

#500
b0b0 #

#550
b0b1 #

